<?xml version="1.0" encoding="UTF-8" standalone="no"?>
<!-- Created with Inkscape (http://www.inkscape.org/) -->

<svg
        xmlns:dc="http://purl.org/dc/elements/1.1/"
        xmlns:cc="http://creativecommons.org/ns#"
        xmlns:rdf="http://www.w3.org/1999/02/22-rdf-syntax-ns#"
        xmlns:xlink="http://www.w3.org/1999/xlink"
        xmlns:sodipodi="http://sodipodi.sourceforge.net/DTD/sodipodi-0.dtd"
        xmlns:inkscape="http://www.inkscape.org/namespaces/inkscape"
        xmlns="http://www.w3.org/2000/svg"
        width="153.11073mm"
        height="117.4082mm"
        viewBox="0 0 153.11073 117.4082"
        version="1.1"
        id="svg8"
        inkscape:version="0.92.4 (5da689c313, 2019-01-14)"
        sodipodi:docname="muses.svg">
    <title
            id="title1000">Muses
    </title>
    <defs
            id="defs2">
        <clipPath
                clipPathUnits="userSpaceOnUse"
                id="clipPath909">
            <use
                    x="0"
                    y="0"
                    xlink:href="#g905"
                    id="use911"
                    width="100%"
                    height="100%"/>
        </clipPath>
        <clipPath
                clipPathUnits="userSpaceOnUse"
                id="clipPath909-0">
            <g
                    style="fill:#b22aad;fill-opacity:0.33435585"
                    id="use911-1"
                    inkscape:label="Clip">
                <g
                        style="fill:#b22aad;fill-opacity:0.33435585"
                        id="g970">
                    <g
                            style="fill:#b22aad;fill-opacity:0.33435585"
                            id="g962">
                        <path
                                style="fill:#b22aad;fill-opacity:0.33435585;stroke:none;stroke-width:0.26458332px;stroke-linecap:butt;stroke-linejoin:miter;stroke-opacity:1"
                                d="M 32.942971,153.3428 C 199.12714,72.25115 168.50612,134.80219 144.30313,143.00776 c 9.57693,-18.6563 1.31839,-32.92234 -33.84729,-40.56508 L 32.942971,153.3428"
                                id="path958"
                                inkscape:connector-curvature="0"
                                sodipodi:nodetypes="cccc"/>
                        <path
                                style="fill:#b22aad;fill-opacity:0.33435585;stroke:none;stroke-width:0.17363766px;stroke-linecap:butt;stroke-linejoin:miter;stroke-opacity:1"
                                d="m 32.942971,153.3428 c 119.491419,-48.57268 97.473989,-11.10555 80.071309,-6.19053 6.8861,-11.17485 0.94796,-19.71999 -24.337223,-24.29788 L 32.942971,153.3428"
                                id="path960"
                                inkscape:connector-curvature="0"
                                sodipodi:nodetypes="cccc"/>
                    </g>
                    <g
                            style="fill:#b22aad;fill-opacity:0.33435585"
                            id="g968"
                            transform="rotate(-45,57.765811,127.88579)">
                        <path
                                style="fill:#b22aad;fill-opacity:0.33435585;stroke:none;stroke-width:0.26458332px;stroke-linecap:butt;stroke-linejoin:miter;stroke-opacity:1"
                                d="M 32.942971,153.3428 C 199.12714,72.25115 168.50612,134.80219 144.30313,143.00776 c 9.57693,-18.6563 1.31839,-32.92234 -33.84729,-40.56508 L 32.942971,153.3428"
                                id="path964"
                                inkscape:connector-curvature="0"
                                sodipodi:nodetypes="cccc"/>
                        <path
                                style="fill:#b22aad;fill-opacity:0.33435585;stroke:none;stroke-width:0.17363766px;stroke-linecap:butt;stroke-linejoin:miter;stroke-opacity:1"
                                d="m 32.942971,153.3428 c 119.491419,-48.57268 97.473989,-11.10555 80.071309,-6.19053 6.8861,-11.17485 0.94796,-19.71999 -24.337223,-24.29788 L 32.942971,153.3428"
                                id="path966"
                                inkscape:connector-curvature="0"
                                sodipodi:nodetypes="cccc"/>
                    </g>
                </g>
            </g>
        </clipPath>
    </defs>
    <sodipodi:namedview
            id="base"
            pagecolor="#ffffff"
            bordercolor="#666666"
            borderopacity="1.0"
            inkscape:pageopacity="0.0"
            inkscape:pageshadow="2"
            inkscape:zoom="2.0480469"
            inkscape:cx="299.63978"
            inkscape:cy="212.02082"
            inkscape:document-units="mm"
            inkscape:current-layer="layer1"
            showgrid="false"
            inkscape:window-width="3056"
            inkscape:window-height="1755"
            inkscape:window-x="-13"
            inkscape:window-y="-13"
            inkscape:window-maximized="1"/>
    <metadata
            id="metadata5">
        <rdf:RDF>
            <cc:Work
                    rdf:about="">
                <dc:format>image/svg+xml</dc:format>
                <dc:type
                        rdf:resource="http://purl.org/dc/dcmitype/StillImage"/>
                <dc:title>Muses</dc:title>
            </cc:Work>
        </rdf:RDF>
    </metadata>
    <g
            inkscape:label="Calque 1"
            inkscape:groupmode="layer"
            id="layer1"
            transform="translate(-19.198362,-46.182116)">
        <g
                id="g997"
                inkscape:export-xdpi="300"
                inkscape:export-ydpi="300">
            <path
                    inkscape:connector-curvature="0"
                    d="M 124.50844,163.59031 C 74.361308,44.751035 63.43672,86.812973 72.266828,102.59397 c 3.03261,-12.77102 13.27383,-14.614449 34.390222,0.0278 l 17.85139,60.96852 m 0,0 C 64.33894,-11.26011 41.761,54.622486 53.07289,77.538801 59.49297,57.574891 75.420248,53.326947 105.69038,72.788604 l 18.81806,90.801706 M 149.7797,153.4941 C 30.28828,104.92141 52.30571,142.38854 69.708388,147.30357 62.82229,136.12871 68.76043,127.58357 94.045618,123.00568 L 149.7797,153.4941 m 0,0 C -16.40447,72.402432 14.21655,134.95348 38.41954,143.15905 28.84261,124.50275 37.10115,110.23672 72.266828,102.59397 L 149.7797,153.4941"
                    style="fill:#e89ce4;fill-opacity:1;stroke:none;stroke-width:0.17363766px;stroke-linecap:butt;stroke-linejoin:miter;stroke-opacity:1"
                    id="path815-3-0-2"/>
            <g
                    transform="translate(8.7847924,0.12918812)"
                    clip-path="url(#clipPath909)"
                    id="g907">
                <g
                        id="g905"
                        inkscape:label="Clip">
                    <g
                            id="g863">
                        <g
                                id="g834"/>
                        <g
                                id="g834-7"
                                transform="rotate(-45,57.765811,127.88579)">
                            <path
                                    inkscape:connector-curvature="0"
                                    d="m 32.942971,153.3428 c 119.491419,-48.57268 97.473989,-11.10555 80.071309,-6.19053 6.8861,-11.17485 0.94796,-19.71999 -24.337223,-24.29788 L 32.942971,153.3428 m 0,0 C 199.12714,72.25115 168.50612,134.80219 144.30313,143.00776 c 9.57693,-18.6563 1.31839,-32.92234 -33.84729,-40.56508 L 32.942971,153.3428 M 22.212588,128.33422 c 118.839262,50.14712 76.777328,61.0717 60.996331,52.2416 C 95.97994,177.54321 97.823367,167.30199 83.1811,146.1856 L 22.212588,128.33422 m 0,0 C 197.063,188.50371 131.1804,211.08165 108.26409,199.76976 128.228,193.34968 132.47594,177.4224 113.01428,147.15227 L 22.212588,128.33422"
                                    style="fill:#af00a4;fill-opacity:1;stroke:none;stroke-width:0.17363766px;stroke-linecap:butt;stroke-linejoin:miter;stroke-opacity:1"
                                    id="path815-3-0"/>
                        </g>
                    </g>
                </g>
            </g>
        </g>
    </g>
</svg>
